Session 2: Homework 1
…
rating
0
1
6.39e+00
1.05e+00
1.6
5.80e+00
6.50e+00
7.10e+00
9.30e+00

#Identifying duplicate values
movies[duplicated(movies$title), ]

## # A tibble: 54 x 11
##    title   genre  director   year duration  gross budget cast_facebook_l~  votes
##    <chr>   <chr>  <chr>     <dbl>    <dbl>  <dbl>  <dbl>            <dbl>  <dbl>
##  1 Spider~ Action Sam Raimi  2007      156 3.37e8 2.58e8            46055 383071
##  2 Alice ~ Adven~ Tim Burt~  2010      108 3.34e8 2   e8            79957 306336
##  3 Oz the~ Adven~ Sam Raimi  2013      130 2.35e8 2.15e8            73441 175413
##  4 Cinder~ Drama  Kenneth ~  2015      105 2.01e8 9.5 e7             4671 103749
##  5 Twilig~ Drama  Catherin~  2008      122 1.91e8 3.7 e7            44060 348007
##  6 Teenag~ Action Jonathan~  2014      101 1.91e8 1.25e8             2690 167089
##  7 Planet~ Action Tim Burt~  2001      119 1.80e8 1   e8             2776 177729
##  8 Home    Adven~ Tim John~  2015       94 1.77e8 1.35e8            17883  70133
##  9 Home    Adven~ Tim John~  2015       94 1.77e8 1.35e8            17883  70136
## 10 TRON: ~ Action Joseph K~  2010      125 1.72e8 1.7 e8            25549 264186
## # ... with 44 more rows, and 2 more variables: reviews <dbl>, rating <dbl>
…
