…
degree: highest education level attained

Instagram and Snapchat, by sex

Can we estimate the population proportion of Snapchat or Instagram users in 2016?

Create a new variable, snap_insta that is Yes if the respondent reported using any of Snapchat (snapchat) or Instagram (instagrm), and No if not. If the recorded value was NA for both of these questions, the value in your new variable should also be NA.

snap_insta <- gss %>%
  mutate(snap_insta = if_else(snapchat == "NA" & instagrm == "NA", "NA", 
                              if_else(snapchat=="Yes" | instagrm == "Yes", "Yes", "No")))

snap_insta

## # A tibble: 2,867 x 8
##    emailmin emailhr snapchat instagrm twitter sex    degree         snap_insta
##    <chr>    <chr>   <chr>    <chr>    <chr>   <chr>  <chr>          <chr>     
##  1 0        12      NA       NA       NA      Male   Bachelor       NA        
##  2 30       0       No       No       No      Male   High school    No        
##  3 NA       NA      No       No       No      Male   Bachelor       No        
##  4 10       0       NA       NA       NA      Female High school    NA        
##  5 NA       NA      Yes      Yes      No      Female Graduate       Yes       
##  6 0        2       No       Yes      No      Female Junior college Yes       
##  7 0        40      NA       NA       NA      Male   High school    NA        
##  8 NA       NA      Yes      Yes      No      Female High school    Yes       
##  9 0        0       NA       NA       NA      Male   High school    NA        
## 10 NA       NA      No       No       No      Male   Junior college No        
## # ... with 2,857 more rows
…
No, these two confidence intervals do not overlap. There is a significant difference between bachelor graduates who do and who do not use Twitter. 

Email usage

Can we estimate the population parameter on time spent on email weekly?

Create a new variable called email that combines emailhr and emailmin to reports the number of minutes the respondents spend on email weekly.

email_time <- gss %>% 
  mutate(
    email = as.numeric(emailhr) * 60 + as.numeric(emailmin))

email_time

## # A tibble: 2,867 x 8
##    emailmin emailhr snapchat instagrm twitter sex    degree         email
##    <chr>    <chr>   <chr>    <chr>    <chr>   <chr>  <chr>          <dbl>
##  1 0        12      NA       NA       NA      Male   Bachelor         720
##  2 30       0       No       No       No      Male   High school       30
##  3 NA       NA      No       No       No      Male   Bachelor          NA
##  4 10       0       NA       NA       NA      Female High school       10
##  5 NA       NA      Yes      Yes      No      Female Graduate          NA
##  6 0        2       No       Yes      No      Female Junior college   120
##  7 0        40      NA       NA       NA      Male   High school     2400
##  8 NA       NA      Yes      Yes      No      Female High school       NA
##  9 0        0       NA       NA       NA      Male   High school        0
## 10 NA       NA      No       No       No      Male   Junior college    NA
## # ... with 2,857 more rows
…
