…
wide_format_gdp %>%
  select(Country, year, GDP, GDP_calculated, percentage_difference)

## # A tibble: 144 x 5
## # Groups:   year [48]
##    Country  year   GDP GDP_calculated percentage_difference
##    <chr>   <dbl> <dbl>          <dbl>                 <dbl>
##  1 Germany  1970 1534.          1581.                  3.03
##  2 Germany  1971 1582.          1638.                  3.54
##  3 Germany  1972 1650.          1709.                  3.56
##  4 Germany  1973 1729.          1779.                  2.92
##  5 Germany  1974 1744.          1775.                  1.78
##  6 Germany  1975 1729.          1780.                  2.93
##  7 Germany  1976 1815.          1866.                  2.83
##  8 Germany  1977 1876.          1927.                  2.77
##  9 Germany  1978 1932.          1991.                  3.05
## 10 Germany  1979 2012.          2081.                  3.44
## # ... with 134 more rows
…
